厦门一套,http://39.135.55.7:6610/PLTV/88888888/224/3221226814/index.m3u8?servicetype=1&IASHttpSessionId=OTT
厦门一套,http://112.50.243.8/PLTV/88888888/224/3221226814/3.m3u8
厦门一套,http://ott.fj.chinamobile.com/PLTV/88888888/224/3221226814/index.m3u8
厦门二套,http://39.135.55.7:6610/PLTV/88888888/224/3221226777/index.m3u8?servicetype=1&IASHttpSessionId=OTT
厦门二套,http://112.50.243.8/PLTV/88888888/224/3221226777/3.m3u8
厦门二套,http://ott.fj.chinamobile.com/PLTV/88888888/224/3221226777/index.m3u8
厦门三套,http://39.135.55.7:6610/PLTV/88888888/224/3221226760/index.m3u8?servicetype=1&IASHttpSessionId=OTT
厦门三套,http://112.50.243.8/PLTV/88888888/224/3221226760/3.m3u8
厦门三套,http://ott.fj.chinamobile.com/PLTV/88888888/224/3221226760/1.m3u8
厦门三套,http://ott.fj.chinamobile.com/PLTV/88888888/224/3221226760/index.m3u8
厦门四套,http://audiolive.rbc.cn:1935/live/fm1039/96K/tzwj_video.m3u8
厦门卫视,http://ott.fj.chinamobile.com/PLTV/88888888/224/3221226781/1.m3u8
厦门卫视,http://ott.fj.chinamobile.com/PLTV/88888888/224/3221226781/index.m3u8
CCTV-1,http://183.251.61.207/PLTV/88888888/224/3221225922/index.m3u8
CCTV-1,http://183.252.176.10/PLTV/88888888/224/3221225922/index.m3u8
CCTV-1,http://39.134.66.66/PLTV/88888888/224/3221225816/index.m3u8
CCTV-1,http://ott.fj.chinamobile.com/PLTV/88888888/224/3221225922/index.m3u8
CCTV-2,http://ott.fj.chinamobile.com/PLTV/88888888/224/3221225800/index.m3u8
CCTV-3,http://111.20.33.70/PLTV/88888893/224/3221226397/index.m3u8
CCTV-3,http://39.135.138.58:18890/PLTV/88888910/224/3221225647/index.m3u8
CCTV-3,http://hwrr.jx.chinamobile.com:8080/PLTV/88888910/224/3221225647/index.m3u8
CCTV-3,http://39.134.115.163:8080/PLTV/88888910/224/3221225634/index.m3u8
CCTV-4,http://112.50.243.8/PLTV/88888888/224/3221225802/1.m3u8
CCTV-4,http://ott.fj.chinamobile.com/PLTV/88888888/224/3221225802/index.m3u8

CCTV-5,http://123.6.9.146/live/jz-cctv-5/live.m3u8
CCTV-5,http://39.135.138.59:18890/PLTV/88888910/224/3221225633/index.m3u8
CCTV-5,http://hwrr.jx.chinamobile.com:8080/PLTV/88888888/224/3221225633/index.m3u8
CCTV-5,http://39.134.115.163:8080/PLTV/88888910/224/3221225633/index.m3u8

CCTV-5+,http://ott.fj.chinamobile.com/PLTV/88888888/224/3221225939/1.m3u8
CCTV-5+,http://111.20.33.93/TVOD/88888893/224/3221226221/index.m3u8
CCTV-5+,http://183.207.249.14/PLTV/3/224/3221225604/index.m3u8
CCTV-5+,http://ott.fj.chinamobile.com/PLTV/88888888/224/3221225821/index.m3u8

CCTV-6,http://hwrr.jx.chinamobile.com:8080/PLTV/88888910/224/3221225650/index.m3u8
CCTV-6,http://hwrr.jx.chinamobile.com:8080/PLTV/88888888/224/3221225632/index.m3u8
CCTV-6,https://hlslive.1905.com/live/LIVE2OR14O20ADLYU/index.m3u8?tm=1664730439&sign=62c2be5295621f8af6f47c8aaba7ab9d
CCTV-6,http://39.135.138.59:18890/PLTV/88888910/224/3221225650/index.m3u8
CCTV-7,http://39.134.67.6/ottrrs.hl.chinamobile.com/PLTV/88888888/224/3221225733/1.m3u8
CCTV-7,http://hwrr.jx.chinamobile.com:8080/PLTV/88888888/224/3221225624/index.m3u8
CCTV-7,http://39.135.138.60:18890/PLTV/88888910/224/3221225624/index.m3u8
CCTV-7,http://ott.fj.chinamobile.com/PLTV/88888888/224/3221225805/index.m3u8
CCTV-8,http://183.207.248.12/PLTV/3/224/3221227204/index.m3u8
CCTV-8,http://hwrr.jx.chinamobile.com:8080/PLTV/88888888/224/3221225631/index.m3u8
CCTV-8,http://39.135.138.60:18890/PLTV/88888910/224/3221225635/index.m3u8
CCTV-8,http://39.135.138.59:18890/PLTV/88888910/224/3221225631/index.m3u8

CCTV-13,http://hwrr.jx.chinamobile.com:8080/PLTV/88888888/224/3221225638/index.m3u8
CCTV-13,http://39.135.138.60:18890/PLTV/88888910/224/3221225638/index.m3u8
CHC家庭影院,http://dbiptv.sn.chinamobile.com/PLTV/88888890/224/3221226462/index.m3u8
CHC家庭影院,http://111.20.33.93/PLTV/88888893/224/3221226462/index.m3u8
CHC动作电影,http://dbiptv.sn.chinamobile.com/PLTV/88888890/224/3221226465/index.m3u8
CHC高清电影,http://dbiptv.sn.chinamobile.com/PLTV/88888890/224/3221226463/index.m3u8
CCTV世界地理,http://dbiptv.sn.chinamobile.com/PLTV/88888893/224/3221226947/index.m3u8
CCTV风云剧场,http://dbiptv.sn.chinamobile.com/PLTV/88888893/224/3221226950/index.m3u8
CCTV风云音乐,http://dbiptv.sn.chinamobile.com/PLTV/88888893/224/3221226953/index.m3u8
CCTV央视台球,http://dbiptv.sn.chinamobile.com/PLTV/88888893/224/3221226956/index.m3u8
CCTV第一剧场,http://dbiptv.sn.chinamobile.com/PLTV/88888893/224/3221226959/index.m3u8
CCTV女性时尚,http://dbiptv.sn.chinamobile.com/PLTV/88888893/224/3221226969/index.m3u8
CCTV怀旧剧场,http://dbiptv.sn.chinamobile.com/PLTV/88888893/224/3221226972/index.m3u8
CCTV兵器科技,http://dbiptv.sn.chinamobile.com/PLTV/88888893/224/3221226975/index.m3u8
CCTV风云足球,http://dbiptv.sn.chinamobile.com/PLTV/88888893/224/3221226984/index.m3u8
CCTV文化精品,http://dbiptv.sn.chinamobile.com/PLTV/88888893/224/3221226981/index.m3u8
NewTV爱情喜剧,http://ott.fj.chinamobile.com/PLTV/88888888/224/3221225877/index.m3u8
NewTV超级电视剧,http://39.135.138.59:18890/PLTV/88888910/224/3221225625/index.m3u8
NewTV超级电影,http://39.135.138.59:18890/PLTV/88888910/224/3221225623/index.m3u8
NewTV超级体育,http://39.135.138.60:18890/PLTV/88888910/224/3221225767/index.m3u8
NewTV超级综艺,http://39.135.138.60:18890/PLTV/88888910/224/3221225620/index.m3u8
NewTV潮妈辣婆,http://ott.fj.chinamobile.com/PLTV/88888888/224/3221226107/index.m3u8
NewTV动作电影,http://ott.fj.chinamobile.com/PLTV/88888888/224/3221225879/index.m3u8
NewTV古装剧场,http://ott.fj.chinamobile.com/PLTV/88888888/224/3221225880/index.m3u8
NewTV海外剧场,http://ott.fj.chinamobile.com/PLTV/88888888/224/3221225881/index.m3u8
NewTV家庭剧场,http://ott.fj.chinamobile.com/PLTV/88888888/224/3221225882/index.m3u8
NewTV金牌综艺,http://ott.fj.chinamobile.com/PLTV/88888888/224/3221225884/index.m3u8
NewTV惊悚悬疑,http://ott.fj.chinamobile.com/PLTV/88888888/224/3221225885/index.m3u8
NewTV精品大剧,http://39.135.138.60:18890/PLTV/88888910/224/3221225714/index.m3u8
NewTV精品大剧,http://ott.fj.chinamobile.com/PLTV/88888888/224/3221225889/index.m3u8
NewTV精品电影,http://39.135.138.60:18890/PLTV/88888910/224/3221225718/index.m3u8
NewTV精品纪录,http://39.135.138.60:18890/PLTV/88888910/224/3221225710/index.m3u8
NewTV精品纪录,http://ott.fj.chinamobile.com/PLTV/88888888/224/3221225888/index.m3u8
NewTV精品体育,http://ott.fj.chinamobile.com/PLTV/88888888/224/3221225886/index.m3u8
NewTV军旅剧场,http://ott.fj.chinamobile.com/PLTV/88888888/224/3221225887/index.m3u8
NewTV军事评论,http://ott.fj.chinamobile.com/PLTV/88888888/224/3221225890/index.m3u8
NewTV明星大片,http://ott.fj.chinamobile.com/PLTV/88888888/224/3221225893/index.m3u8
NewTV武搏世界,http://ott.fj.chinamobile.com/PLTV/88888888/224/3221225895/index.m3u8
NewTV炫舞未来,http://ott.fj.chinamobile.com/PLTV/88888888/224/3221226699/index.m3u8
NewTV怡伴健康,http://ott.fj.chinamobile.com/PLTV/88888888/224/3221225883/index.m3u8
NewTV中国功夫,http://hwrr.jx.chinamobile.com:8080/PLTV/88888888/224/3221225660/index.m3u8
NewTV中国功夫,http://ott.fj.chinamobile.com/PLTV/88888888/224/3221225896/index.m3u8
黑莓电影,http://ott.fj.chinamobile.com/PLTV/88888888/224/3221225891/index.m3u8
快乐垂钓,http://39.135.55.7:6610/PLTV/88888888/224/3221226940/index.m3u8?servicetype=1$移动超清1080P
快乐垂钓,http://ott.fj.chinamobile.com/PLTV/88888888/224/3221226940/index.m3u8
求索动物HD,http://39.134.66.66/PLTV/88888888/224/3221225730/index.m3u8
求索纪录HD,http://39.134.66.66/PLTV/88888888/224/3221225713/index.m3u8
求索科学HD,http://39.134.66.66/PLTV/88888888/224/3221225728/index.m3u8
求索生活HD,http://39.134.66.66/PLTV/88888888/224/3221225715/index.m3u8
先锋乒羽,http://ott.fj.chinamobile.com/PLTV/88888888/224/3221226851/index.m3u8
中国美食,http://39.135.138.58:18890/PLTV/88888888/224/3221225924/index.m3u8
防控尿酸高,https://kvideo01.youju.sohu.com/c9bebed7-3b47-4eea-8707-21bce320c5b64_0_0.mp4
高嘌呤食物1,https://kvideo01.youju.sohu.com/f90e30a9-2fed-4dbf-8849-50408b9b96732_0_0.mp4
